17

H         -0.54724        0.39133       -1.44171
C         -0.30751       -0.25003       -0.58444
C         -0.96379       -1.60698       -0.81607
O         -0.49459       -2.54967       -1.43693
O         -2.23400       -1.67324       -0.36446
H         -2.51458       -2.57909       -0.61297
N          1.15619       -0.38194       -0.44177
C          1.60193        0.89945        0.08776
H          2.58864        0.82411        0.55349
H          1.65541        1.64584       -0.71339
C          0.52465        1.27532        1.09365
H          0.29872        2.34578        1.04580
H          0.84011        1.04347        2.11720
C         -0.69132        0.43207        0.72037
H         -1.58564        1.05328        0.60237
H         -0.89729       -0.29385        1.51673
H          1.58459       -0.59901       -1.34077
