20

C          0.50999       -1.28335       -0.50519
N          1.93621       -1.28784       -0.12096
C         -0.11663        0.11346       -0.43149
C         -0.26971        0.62965        0.99972
C         -0.95464        1.97857        1.04058
O         -1.35021        2.59140        0.05778
N         -1.10510        2.49043        2.29570
C          0.37011       -1.81432       -1.93638
O          1.16951       -1.66658       -2.84893
O         -0.79602       -2.45825       -2.14581
H         -0.01357       -1.97541        0.16427
H          2.09743       -0.70658        0.69596
H          2.47586       -0.87168       -0.88521
H         -1.10563        0.09159       -0.90923
H          0.47781        0.82429       -1.02173
H          0.70825        0.73737        1.48056
H         -0.86849       -0.07494        1.58854
H         -1.55979        3.39021        2.38454
H         -0.80560        2.01108        3.13267
H         -0.74521       -2.72811       -3.08687
