27

N         -1.32682        1.09876       -1.79908
C          0.13365        1.13350       -2.05816
C          0.37916        0.97296       -3.55673
O         -0.16359        0.16842       -4.30022
O          1.33274        1.80078       -4.03038
C          0.91487        0.02027       -1.33956
H          1.96859        0.05626       -1.64889
H          0.55090       -0.96450       -1.66162
C          0.85405        0.11683        0.15535
C          1.63419        0.93013        0.95443
N          1.26456        0.73570        2.25797
H          1.66988        1.20532        3.05568
C          0.25409       -0.19369        2.33272
C         -0.01986       -0.60839        1.02931
C         -1.02730       -1.57552        0.83091
H         -1.26736       -1.92771       -0.16781
C         -1.72141       -2.08574        1.93404
H         -2.49817       -2.83104        1.78130
C         -1.42558       -1.64849        3.22246
H         -1.97588       -2.05642        4.06734
C         -0.42992       -0.69365        3.44741
H         -0.20098       -0.35648        4.45300
H          2.41809        1.63354        0.70575
H         -1.47532        1.05874       -0.78920
H         -1.69986        0.22383       -2.17156
H          0.49496        2.12100       -1.74773
H          1.35427        1.60478       -4.99060
